fastboot.c:330:13:board_fbt_run_recovery	32	static
fastboot.c:275:13:board_fbt_request_start_fastboot	544	static
fastboot.c:80:6:board_fbt_set_reboot_type	32	static
fastboot.c:109:22:board_fbt_get_reboot_type	32	static
fastboot.c:187:5:board_fbt_key_pressed	48	static
fastboot.c:239:6:board_fbt_finalize_bootargs	80	static
fastboot.c:252:6:board_fbt_boot_failed	48	static
fastboot.c:291:5:board_fbt_oem	0	static
fastboot.c:300:5:board_fbt_handle_erase	0	static
fastboot.c:305:5:board_fbt_handle_flash	0	static
fastboot.c:311:5:board_fbt_handle_download	0	static
fastboot.c:319:5:board_fbt_load_partition_table	0	static
fastboot.c:324:25:board_fbt_get_partition	0	static
fastboot.c:342:6:board_fbt_run_recovery_wipe_data	1104	static
fastboot.c:385:6:get_exit_uboot_charge_level	32	static
fastboot.c:432:6:board_fbt_exit_uboot_charge	80	static
fastboot.c:470:6:board_fbt_preboot	64	static
